I_SO_NO,I_SO_LINE_NO,I_ORDER_NO,TRIM(T.I_CUSTOMER_CD),TRIM(T.I_DEL_DEST_CD),TRIM(T.I_TRADE_ITEM_CD),"TO_CHAR(T.I_DEL_DATE,'DD/MM/YYYY')",I_SO_QTY,TRIM(T.I_ITEM_TYPE2_DESC),I_TP_NO,I_TP_TIME,TRIM(S.I_TRADE_DO_NO),TRIM(S.I_DEL_LOCATION),I_SHIP_ORDER_NO
1709676349,1,35581,HATC,MPKD03,72235-T5A-N010-M1,16/09/2017,120,2WF-JAZZ,5,2720,173510,AAL03,1709501815
1709676350,1,35582,HATC,MPKD03,72275-T5A-N010-M1,16/09/2017,120,2WF-JAZZ,5,2720,173510,AAL03,1709501815
1709676351,1,35583,HATC,MPKD03,72335-T5A-J011-M1,16/09/2017,120,2WF-JAZZ,5,2720,173510,AAL03,1709501815
1709676352,1,35584,HATC,MPKD03,72375-T5A-J011-M1,16/09/2017,120,2WF-JAZZ,5,2720,173510,AAL03,1709501815
1709676353,1,35585,HATC,MPKD03,72735-T5A-N010-M1,16/09/2017,120,2WF-JAZZ,5,2720,173510,AAL03,1709501815
1709676354,1,35586,HATC,MPKD03,72775-T5A-N010-M1,16/09/2017,120,2WF-JAZZ,5,2720,173510,AAL03,1709501815
1709676355,1,35587,HATC,MPKD03,72835-T5A-J011-M1,16/09/2017,120,2WF-JAZZ,5,2720,173510,AAL03,1709501815
1709676356,1,35588,HATC,MPKD03,72875-T5A-J011-M1,16/09/2017,120,2WF-JAZZ,5,2720,173510,AAL03,1709501815
1709676357,1,35589,HATC,MPKD03,73152-T5S-U011-M1,16/09/2017,120,2WM-JAZZ,5,2720,173510,AAL03,1709501815
1709676358,1,35590,HATC,MPKD03,73162-T5S-U011-M1,16/09/2017,120,2WM-JAZZ,5,2720,173510,AAL03,1709501815
1709676359,1,35591,HATC,MPKD03,74306-T5H-H010-M1,16/09/2017,120,2WF-JAZZ,5,2720,173510,AAL03,1709501815
1709676360,1,35592,HATC,MPKD03,74316-T5H-H010-M1,16/09/2017,120,2WF-JAZZ,5,2720,173510,AAL03,1709501815
1709676361,1,35593,HATC,MPKD03,71804-TEA-T001,16/09/2017,480,2SV-CIVIC,5,2720,173510,AAL03,1709501815
1709676372,1,35604,HATC,MPKD03,72410-TEA-T010-M1,16/09/2017,120,2SV-CIVIC,5,2720,173510,AAL03,1709501815
1709676377,1,35609,HATC,MPKD03,72450-TEA-T010-M1,16/09/2017,120,2SV-CIVIC,5,2720,173510,AAL03,1709501815
1709676388,1,35620,HATC,MPKD03,72910-TEA-T010-M1,16/09/2017,120,2SV-CIVIC,5,2720,173510,AAL03,1709501815
1709676393,1,35625,HATC,MPKD03,72950-TEA-T010-M1,16/09/2017,120,2SV-CIVIC,5,2720,173510,AAL03,1709501815
1709676398,1,35630,HATC,MPKD03,74306-TEA-T010-M1,16/09/2017,120,2SV-CIVIC,5,2720,173510,AAL03,1709501815
1709676402,1,35634,HATC,MPKD03,74316-TEA-T010-M1,16/09/2017,120,2SV-CIVIC,5,2720,173510,AAL03,1709501815
1709676406,1,35638,HATC,MPKD03,72410-TEA-T010-M1,16/09/2017,60,2SV-CIVIC,5,2720,173510,AAL03,1709501815
1709676411,1,35643,HATC,MPKD03,72450-TEA-T010-M1,16/09/2017,60,2SV-CIVIC,5,2720,173510,AAL03,1709501815
1709676416,1,35648,HATC,MPKD03,72910-TEA-T010-M1,16/09/2017,60,2SV-CIVIC,5,2720,173510,AAL03,1709501815
1709676421,1,35653,HATC,MPKD03,72950-TEA-T010-M1,16/09/2017,60,2SV-CIVIC,5,2720,173510,AAL03,1709501815
1709676426,1,35658,HATC,MPKD03,74306-TEA-T010-M1,16/09/2017,60,2SV-CIVIC,5,2720,173510,AAL03,1709501815
1709676431,1,35663,HATC,MPKD03,74316-TEA-T010-M1,16/09/2017,60,2SV-CIVIC,5,2720,173510,AAL03,1709501815
1708667530,1,41325,HATC,MPKD03,72235-T5A-N010-M1,15/09/2017,60,2WF-JAZZ,5,2720,173410,AAL03,1709501814
1708667535,1,41330,HATC,MPKD03,72275-T5A-N010-M1,15/09/2017,60,2WF-JAZZ,5,2720,173410,AAL03,1709501814
1708667540,1,41335,HATC,MPKD03,72335-T5A-J011-M1,15/09/2017,60,2WF-JAZZ,5,2720,173410,AAL03,1709501814
1708667545,1,41340,HATC,MPKD03,72375-T5A-J011-M1,15/09/2017,60,2WF-JAZZ,5,2720,173410,AAL03,1709501814
1708667550,1,41345,HATC,MPKD03,72735-T5A-N010-M1,15/09/2017,60,2WF-JAZZ,5,2720,173410,AAL03,1709501814
1708667555,1,41350,HATC,MPKD03,72775-T5A-N010-M1,15/09/2017,60,2WF-JAZZ,5,2720,173410,AAL03,1709501814
1708667560,1,41355,HATC,MPKD03,72835-T5A-J011-M1,15/09/2017,60,2WF-JAZZ,5,2720,173410,AAL03,1709501814
1708667565,1,41360,HATC,MPKD03,72875-T5A-J011-M1,15/09/2017,60,2WF-JAZZ,5,2720,173410,AAL03,1709501814
1708667570,1,41365,HATC,MPKD03,73152-T5S-U011-M1,15/09/2017,60,2WM-JAZZ,5,2720,173410,AAL03,1709501814
1708667575,1,41370,HATC,MPKD03,73162-T5S-U011-M1,15/09/2017,60,2WM-JAZZ,5,2720,173410,AAL03,1709501814
1708667580,1,41375,HATC,MPKD03,74306-T5H-H010-M1,15/09/2017,60,2WF-JAZZ,5,2720,173410,AAL03,1709501814
1708667585,1,41380,HATC,MPKD03,74316-T5H-H010-M1,15/09/2017,60,2WF-JAZZ,5,2720,173410,AAL03,1709501814
1708667591,1,41386,HATC,MPKD03,71804-TEA-T001,15/09/2017,480,2SV-CIVIC,5,2720,173410,AAL03,1709501814
1708667595,1,41390,HATC,MPKD03,72335-TEA-T010-M1,15/09/2017,120,2SV-CIVIC,5,2720,173410,AAL03,1709501814
1708667599,1,41394,HATC,MPKD03,72375-TEA-T010-M1,15/09/2017,120,2SV-CIVIC,5,2720,173410,AAL03,1709501814
1708667605,1,41400,HATC,MPKD03,72410-TEA-T010-M1,15/09/2017,180,2SV-CIVIC,5,2720,173410,AAL03,1709501814
1708667611,1,41406,HATC,MPKD03,72450-TEA-T010-M1,15/09/2017,180,2SV-CIVIC,5,2720,173410,AAL03,1709501814
1708667615,1,41410,HATC,MPKD03,72835-TEA-T010-M1,15/09/2017,120,2SV-CIVIC,5,2720,173410,AAL03,1709501814
1708667619,1,41414,HATC,MPKD03,72875-TEA-T010-M1,15/09/2017,120,2SV-CIVIC,5,2720,173410,AAL03,1709501814
1708667625,1,41420,HATC,MPKD03,72910-TEA-T010-M1,15/09/2017,180,2SV-CIVIC,5,2720,173410,AAL03,1709501814
1708667631,1,41426,HATC,MPKD03,72950-TEA-T010-M1,15/09/2017,180,2SV-CIVIC,5,2720,173410,AAL03,1709501814
1708667635,1,41430,HATC,MPKD03,74306-TEA-T010-M1,15/09/2017,180,2SV-CIVIC,5,2720,173410,AAL03,1709501814
1708667639,1,41434,HATC,MPKD03,74316-TEA-T010-M1,15/09/2017,180,2SV-CIVIC,5,2720,173410,AAL03,1709501814
1708667642,1,41437,HATC,MPKD03,72410-TEA-T010-M1,15/09/2017,60,2SV-CIVIC,5,2720,173410,AAL03,1709501814
1708667645,1,41440,HATC,MPKD03,72450-TEA-T010-M1,15/09/2017,60,2SV-CIVIC,5,2720,173410,AAL03,1709501814
1708667648,1,41443,HATC,MPKD03,72910-TEA-T010-M1,15/09/2017,60,2SV-CIVIC,5,2720,173410,AAL03,1709501814
1708667651,1,41446,HATC,MPKD03,72950-TEA-T010-M1,15/09/2017,60,2SV-CIVIC,5,2720,173410,AAL03,1709501814
1708667654,1,41449,HATC,MPKD03,74306-TEA-T010-M1,15/09/2017,60,2SV-CIVIC,5,2720,173410,AAL03,1709501814
1708667657,1,41452,HATC,MPKD03,74316-TEA-T010-M1,15/09/2017,60,2SV-CIVIC,5,2720,173410,AAL03,1709501814
1708671430,1,129125,HATC,PBKD03,71804-TEA-T001,15/09/2017,1200,2SV-CIVIC,1,920,170010,AAL03,1709501816
1708671477,1,129126,HATC,PBKD03,72450-TEA-T010-M1,15/09/2017,1080,2SV-CIVIC,1,920,170010,AAL03,1709501816
1708671511,1,129127,HATC,PBKD03,72910-TGG-A010-M1,15/09/2017,864,2SV-CIVIC,1,920,170010,AAL03,1709501816
1708671521,1,129128,HATC,PBKD03,72950-TGG-A010-M1,15/09/2017,864,2SV-CIVIC,1,920,170010,AAL03,1709501816
1708671535,1,129129,HATC,PBKD03,74316-TGG-A010-M1,15/09/2017,1080,2SV-CIVIC,1,920,170010,AAL03,1709501816
